; RUN: llc < %s -march=arm | FileCheck %s
; RUN: llc < %s -march=thumb | FileCheck -check-prefix=THUMB %s
; RUN: llc < %s -march=thumb -mattr=+thumb2 | FileCheck -check-prefix=T2 %s

%struct.Foo = type { i8* }

define %struct.Foo* @_ZN3Foo7collectEj(%struct.Foo* %this, i32 %acc) nounwind readonly align 2 {
entry:
  %scevgep = getelementptr %struct.Foo* %this, i32 1
  br label %tailrecurse

tailrecurse:                                      ; preds = %sw.bb, %entry
  %lsr.iv2 = phi %struct.Foo* [ %scevgep3, %sw.bb ], [ %scevgep, %entry ]
  %lsr.iv = phi i32 [ %lsr.iv.next, %sw.bb ], [ 1, %entry ]
  %acc.tr = phi i32 [ %or, %sw.bb ], [ %acc, %entry ]
  %lsr.iv24 = bitcast %struct.Foo* %lsr.iv2 to i8**
  %scevgep5 = getelementptr i8** %lsr.iv24, i32 -1
  %tmp2 = load i8** %scevgep5
  %0 = ptrtoint i8* %tmp2 to i32

; CHECK:      ands r12, r12, #3
; CHECK-NEXT: beq

; THUMB:      movs r5, #3
; THUMB-NEXT: mov r6, r4
; THUMB-NEXT: ands r6, r5
; THUMB-NEXT: tst r4, r5
; THUMB-NEXT: beq

; T2:      ands r12, r12, #3
; T2-NEXT: beq

  %and = and i32 %0, 3
  %tst = icmp eq i32 %and, 0
  br i1 %tst, label %sw.bb, label %tailrecurse.switch

tailrecurse.switch:                               ; preds = %tailrecurse
  switch i32 %and, label %sw.epilog [
    i32 1, label %sw.bb
    i32 3, label %sw.bb6
    i32 2, label %sw.bb8
  ]

sw.bb:                                            ; preds = %tailrecurse.switch, %tailrecurse
  %shl = shl i32 %acc.tr, 1
  %or = or i32 %and, %shl
  %lsr.iv.next = add i32 %lsr.iv, 1
  %scevgep3 = getelementptr %struct.Foo* %lsr.iv2, i32 1
  br label %tailrecurse

sw.bb6:                                           ; preds = %tailrecurse.switch
  ret %struct.Foo* %lsr.iv2

sw.bb8:                                           ; preds = %tailrecurse.switch
  %tmp1 = add i32 %acc.tr, %lsr.iv
  %add.ptr11 = getelementptr inbounds %struct.Foo* %this, i32 %tmp1
  ret %struct.Foo* %add.ptr11

sw.epilog:                                        ; preds = %tailrecurse.switch
  ret %struct.Foo* undef
}

; Another test that exercises the AND/TST peephole optimization and also
; generates a predicated ANDS instruction. Check that the predicate is printed
; after the "S" modifier on the instruction.

%struct.S = type { i8* (i8*)*, [1 x i8] }

; CHECK: bar
; THUMB: bar
; T2: bar
define internal zeroext i8 @bar(%struct.S* %x, %struct.S* nocapture %y) nounwind readonly {
entry:
  %0 = getelementptr inbounds %struct.S* %x, i32 0, i32 1, i32 0
  %1 = load i8* %0, align 1
  %2 = zext i8 %1 to i32
; CHECK: ands
; THUMB: ands
; T2: ands
  %3 = and i32 %2, 112
  %4 = icmp eq i32 %3, 0
  br i1 %4, label %return, label %bb

bb:                                               ; preds = %entry
  %5 = getelementptr inbounds %struct.S* %y, i32 0, i32 1, i32 0
  %6 = load i8* %5, align 1
  %7 = zext i8 %6 to i32
; CHECK: andsne
; THUMB: ands
; T2: andsne
  %8 = and i32 %7, 112
  %9 = icmp eq i32 %8, 0
  br i1 %9, label %return, label %bb2

bb2:                                              ; preds = %bb
  %10 = icmp eq i32 %3, 16
  %11 = icmp eq i32 %8, 16
  %or.cond = or i1 %10, %11
  br i1 %or.cond, label %bb4, label %return

bb4:                                              ; preds = %bb2
  %12 = ptrtoint %struct.S* %x to i32
  %phitmp = trunc i32 %12 to i8
  ret i8 %phitmp

return:                                           ; preds = %bb2, %bb, %entry
  ret i8 1
}
